<svg width="8" height="6" viewBox="0 0 8 6" fill="none" xmlns="http://www.w3.org/2000/svg">
<path d="M1.92368 2.99186C2.59655 3.66475 3.68752 3.66475 4.36039 2.99186L6.92534 0.426833C7.0429 0.30927 7.19252 0.250488 7.37421 0.250488C7.55589 0.250488 7.70551 0.30927 7.82307 0.426833C7.94063 0.544397 7.99941 0.694023 7.99941 0.875713C7.99941 1.0574 7.94063 1.20703 7.82307 1.32459L3.5909 5.55688C3.46265 5.68513 3.31303 5.74926 3.14204 5.74926C2.97104 5.74926 2.82142 5.68513 2.69317 5.55688L1.02595 3.88962C0.908389 3.77205 0.849609 3.62243 0.849609 3.44074C0.849609 3.25905 0.908389 3.10942 1.02595 2.99186C1.14351 2.87429 1.29313 2.81551 1.47482 2.81551C1.6565 2.81551 1.80612 2.87429 1.92368 2.99186Z" fill="black"/>
</svg>
