<svg width="26" height="26" viewBox="0 0 26 26" fill="none" xmlns="http://www.w3.org/2000/svg">
<path d="M3.93972 2.32047C3.51856 2.32047 3.11464 2.48777 2.81683 2.78558C2.51902 3.08339 2.35172 3.48731 2.35172 3.90847V7.61382C2.35172 7.89459 2.24018 8.16387 2.04164 8.36241C1.8431 8.56095 1.57382 8.67249 1.29305 8.67249C1.01227 8.67249 0.742992 8.56095 0.544453 8.36241C0.345913 8.16387 0.234375 7.89459 0.234375 7.61382V3.90847C0.234375 1.86312 1.89437 0.203125 3.93972 0.203125H7.64507C7.92584 0.203125 8.19512 0.314663 8.39366 0.513203C8.5922 0.711742 8.70374 0.981018 8.70374 1.2618C8.70374 1.54257 8.5922 1.81185 8.39366 2.01039C8.19512 2.20893 7.92584 2.32047 7.64507 2.32047H3.93972ZM17.1731 1.2618C17.1731 0.981018 17.2846 0.711742 17.4832 0.513203C17.6817 0.314663 17.951 0.203125 18.2318 0.203125H21.9371C23.9825 0.203125 25.6425 1.86312 25.6425 3.90847V7.61382C25.6425 7.89459 25.5309 8.16387 25.3324 8.36241C25.1338 8.56095 24.8646 8.67249 24.5838 8.67249C24.303 8.67249 24.0337 8.56095 23.8352 8.36241C23.6367 8.16387 23.5251 7.89459 23.5251 7.61382V3.90847C23.5251 3.48731 23.3578 3.08339 23.06 2.78558C22.7622 2.48777 22.3583 2.32047 21.9371 2.32047H18.2318C17.951 2.32047 17.6817 2.20893 17.4832 2.01039C17.2846 1.81185 17.1731 1.54257 17.1731 1.2618ZM1.29305 17.1418C1.57382 17.1418 1.8431 17.2534 2.04164 17.4519C2.24018 17.6505 2.35172 17.9197 2.35172 18.2005V21.9059C2.35172 22.7824 3.06314 23.4939 3.93972 23.4939H7.64507C7.92584 23.4939 8.19512 23.6054 8.39366 23.8039C8.5922 24.0025 8.70374 24.2718 8.70374 24.5525C8.70374 24.8333 8.5922 25.1026 8.39366 25.3011C8.19512 25.4997 7.92584 25.6112 7.64507 25.6112H3.93972C2.957 25.6112 2.01453 25.2208 1.31965 24.5259C0.624759 23.8311 0.234375 22.8886 0.234375 21.9059V18.2005C0.234375 17.9197 0.345913 17.6505 0.544453 17.4519C0.742992 17.2534 1.01227 17.1418 1.29305 17.1418ZM24.5838 17.1418C24.8646 17.1418 25.1338 17.2534 25.3324 17.4519C25.5309 17.6505 25.6425 17.9197 25.6425 18.2005V21.9059C25.6425 22.8886 25.2521 23.8311 24.5572 24.5259C23.8623 25.2208 22.9198 25.6112 21.9371 25.6112H18.2318C17.951 25.6112 17.6817 25.4997 17.4832 25.3011C17.2846 25.1026 17.1731 24.8333 17.1731 24.5525C17.1731 24.2718 17.2846 24.0025 17.4832 23.8039C17.6817 23.6054 17.951 23.4939 18.2318 23.4939H21.9371C22.3583 23.4939 22.7622 23.3266 23.06 23.0288C23.3578 22.7309 23.5251 22.327 23.5251 21.9059V18.2005C23.5251 17.9197 23.6367 17.6505 23.8352 17.4519C24.0337 17.2534 24.303 17.1418 24.5838 17.1418Z" fill="black"/>
</svg>
